{
    "en": {
        "title": "english labels",
        "headerComponent": {
            "navigation": {
                "item1": "Home",
                "item2": "Contact Us",
                "item3": "Social",
                "item4": "Exercices",
                "item5": "Clients"
            }
        },
		"informationComponent": {
            "title": "GIVE YOUR GYM THE PROFESSIONAL TOUCH IT NEEDS",
			"list": {
                "item1": "CREATE ROUTINES ONLINE FOR YOUR CLIENTS TO SEE THEM FROM THEIR CELLULARS",
                "item2": "TAKE CONTROL OF YOUR GYM CALENDAR",
                "item3": "NOTIFY YOUR CLIENTS"
            }
        },
        "loginComponent": {
            "title": "Login",
            "email": "Email",
            "password": "Password",
            "errorMessage": "User does not exist",
            "btnLogin": "Start",
            "btnCreateAccoutLabel": "Create Account (Free)"
        }
    }
}